IODS course project
…
data %>% group_by(absences, sex, high_use) %>% summarise(count = n())

## `summarise()` regrouping output by 'absences', 'sex' (override with `.groups` argument)

## # A tibble: 74 x 4
## # Groups:   absences, sex [50]
##    absences sex   high_use count
##       <int> <chr> <lgl>    <int>
##  1        0 F     FALSE       55
##  2        0 F     TRUE         7
##  3        0 M     FALSE       39
##  4        0 M     TRUE        15
##  5        1 F     FALSE        1
##  6        1 F     TRUE         1
##  7        1 M     FALSE        1
##  8        2 F     FALSE       24
##  9        2 F     TRUE         8
## 10        2 M     FALSE       30
## # ... with 64 more rows
…
